{"failedCount":0,"prefixedPath":"src\/test\/java\/dummyApp\/features\/SignUp.feature","packageQualifiedName":"src.test.java.dummyApp.features.SignUp","loopIndex":-1,"relativePath":"src\/test\/java\/dummyApp\/features\/SignUp.feature","scenarioResults":[{"sectionIndex":4,"stepResults":[{"result":{"nanos":766234,"millis":0.766234,"status":"passed"},"step":{"background":true,"line":4,"prefix":"Given","index":0,"text":"url apiUrl"},"stepLog":"22:42:42.326 karate.env system property was: null \n"},{"result":{"nanos":456610,"millis":0.45661,"status":"passed"},"step":{"line":61,"prefix":"Given","index":0,"text":"path 'users?delay=3'"}},{"result":{"nanos":591750768,"millis":591.750768,"status":"passed"},"step":{"line":62,"prefix":"When","index":1,"text":"method Get"},"stepLog":"22:42:42.615 request:\n1 > GET https:\/\/reqres.in\/api\/users%3Fdelay=3\n1 > Host: reqres.in\n1 > Connection: Keep-Alive\n1 > User-Agent: Apache-HttpClient\/4.5.13 (Java\/1.8.0_321)\n1 > Accept-Encoding: gzip,deflate\n\n\n22:42:42.915 response time in milliseconds: 297\n1 < 200\n1 < Date: Mon, 24 Oct 2022 19:42:43 GMT\n1 < Content-Type: application\/json; charset=utf-8\n1 < Transfer-Encoding: chunked\n1 < Connection: keep-alive\n1 < X-Powered-By: Express\n1 < Access-Control-Allow-Origin: *\n1 < Etag: W\/\"2c1-N6Rqerxquq2kgQhL51EiSg4x0R8\"\n1 < Via: 1.1 vegur\n1 < Cache-Control: max-age=14400\n1 < CF-Cache-Status: MISS\n1 < Report-To: {\"endpoints\":[{\"url\":\"https:\\\/\\\/a.nel.cloudflare.com\\\/report\\\/v3?s=nUd6DPf%2FPnX7STdlrEJPrFifmmrOFxh4XNNqFF75D%2BYJzrWk9FGpLvymARPRZ1h2SbJdq87QZ8N0QNlB7bk3hS8uJDnjux7dN5e9RQ7WJcT5Aux0SIUHzi588Q%3D%3D\"}],\"group\":\"cf-nel\",\"max_age\":604800}\n1 < NEL: {\"success_fraction\":0,\"report_to\":\"cf-nel\",\"max_age\":604800}\n1 < Vary: Accept-Encoding\n1 < Server: cloudflare\n1 < CF-RAY: 75f5327e2a4ce19f-IST\n{\"page\":1,\"per_page\":6,\"total\":12,\"total_pages\":2,\"data\":[{\"id\":1,\"name\":\"cerulean\",\"year\":2000,\"color\":\"#98B2D1\",\"pantone_value\":\"15-4020\"},{\"id\":2,\"name\":\"fuchsia rose\",\"year\":2001,\"color\":\"#C74375\",\"pantone_value\":\"17-2031\"},{\"id\":3,\"name\":\"true red\",\"year\":2002,\"color\":\"#BF1932\",\"pantone_value\":\"19-1664\"},{\"id\":4,\"name\":\"aqua sky\",\"year\":2003,\"color\":\"#7BC4C4\",\"pantone_value\":\"14-4811\"},{\"id\":5,\"name\":\"tigerlily\",\"year\":2004,\"color\":\"#E2583E\",\"pantone_value\":\"17-1456\"},{\"id\":6,\"name\":\"blue turquoise\",\"year\":2005,\"color\":\"#53B0AE\",\"pantone_value\":\"15-5217\"}],\"support\":{\"url\":\"https:\/\/reqres.in\/#support-heading\",\"text\":\"To keep ReqRes free, contributions towards server costs are appreciated!\"}}\n\n"},{"result":{"nanos":11016,"millis":0.011016,"status":"passed"},"step":{"line":63,"prefix":"Then","index":2,"text":"status 200"}}],"executorName":"com.intuit.karate.cli.Main.main()","line":60,"name":"Delayed Response","description":"","durationMillis":592.984628,"startTime":1666640562196,"failed":false,"refId":"[5:60]","endTime":1666640562946,"exampleIndex":-1}],"callDepth":0,"name":"New user sign up","description":"","resultDate":"2022-10-24 10:42:42 PM","durationMillis":592.984628,"passedCount":1}